Library\Bee\artifacts\mvdfrm\Unity.TextMeshPro.ref.dll_84A4293DBDD182DB.mvfrm
Library\Bee\artifacts\mvdfrm\UnityEditor.TestRunner.ref.dll_193EC4CE382CBFB3.mvfrm
Library\Bee\artifacts\mvdfrm\UnityEditor.UI.ref.dll_4C98D3F7040CD4F5.mvfrm
Library\Bee\artifacts\mvdfrm\UnityEngine.TestRunner.ref.dll_E55D0F7C63F01D9E.mvfrm
Library\Bee\artifacts\mvdfrm\UnityEngine.UI.ref.dll_08FEAA520A2EFD60.mvfrm
Library\Bee\artifacts\mvdfrm\UnityEditor.Graphs.dll_D9311D47998BFC3B.mvfrm
Library\Bee\artifacts\mvdfrm\UnityEditor.CoreModule.dll_BDAEE3EC8783BB09.mvfrm
Library\Bee\artifacts\mvdfrm\UnityEditor.DeviceSimulatorModule.dll_A2C05F52A8F76008.mvfrm
Library\Bee\artifacts\mvdfrm\UnityEditor.DiagnosticsModule.dll_BCE01E3628A45056.mvfrm
Library\Bee\artifacts\mvdfrm\UnityEditor.dll_73D15AD367A7A03C.mvfrm
Library\Bee\artifacts\mvdfrm\UnityEditor.EditorToolbarModule.dll_2043009256EBDCD8.mvfrm
Library\Bee\artifacts\mvdfrm\UnityEditor.GraphViewModule.dll_1DB3F76B7EBBC56D.mvfrm
Library\Bee\artifacts\mvdfrm\UnityEditor.PresetsUIModule.dll_D91A304D81141D72.mvfrm
Library\Bee\artifacts\mvdfrm\UnityEditor.QuickSearchModule.dll_47EF9F43817B4CAF.mvfrm
Library\Bee\artifacts\mvdfrm\UnityEditor.SceneTemplateModule.dll_43E2715055D88710.mvfrm
Library\Bee\artifacts\mvdfrm\UnityEditor.SceneViewModule.dll_5C63DA7373DE927B.mvfrm
Library\Bee\artifacts\mvdfrm\UnityEditor.TextCoreFontEngineModule.dll_7038DE5C277DAE67.mvfrm
Library\Bee\artifacts\mvdfrm\UnityEditor.TextCoreTextEngineModule.dll_B82114CDB7016785.mvfrm
Library\Bee\artifacts\mvdfrm\UnityEditor.UIBuilderModule.dll_723CA487F1743EA1.mvfrm
Library\Bee\artifacts\mvdfrm\UnityEditor.UIElementsModule.dll_FC71AA03961C77A5.mvfrm
Library\Bee\artifacts\mvdfrm\UnityEditor.UIElementsSamplesModule.dll_60A65C556D9B4B18.mvfrm
Library\Bee\artifacts\mvdfrm\UnityEditor.UnityConnectModule.dll_C2B93AB92BC4EE3F.mvfrm
Library\Bee\artifacts\mvdfrm\UnityEngine.AccessibilityModule.dll_7687DCE7564EAEAD.mvfrm
Library\Bee\artifacts\mvdfrm\UnityEngine.AIModule.dll_AAFBDAAB88D1023D.mvfrm
Library\Bee\artifacts\mvdfrm\UnityEngine.AndroidJNIModule.dll_7ABA92D6DF3BE67B.mvfrm
Library\Bee\artifacts\mvdfrm\UnityEngine.AnimationModule.dll_EC39739459189A13.mvfrm
Library\Bee\artifacts\mvdfrm\UnityEngine.ARModule.dll_646E9FAEE5EE6106.mvfrm
Library\Bee\artifacts\mvdfrm\UnityEngine.AssetBundleModule.dll_8BD8D234E3E201A1.mvfrm
Library\Bee\artifacts\mvdfrm\UnityEngine.AudioModule.dll_5F85A8AA2C8CBE45.mvfrm
Library\Bee\artifacts\mvdfrm\UnityEngine.ClothModule.dll_C66E05A506A99D29.mvfrm
Library\Bee\artifacts\mvdfrm\UnityEngine.ClusterInputModule.dll_4255AFCEDD4CC105.mvfrm
Library\Bee\artifacts\mvdfrm\UnityEngine.ClusterRendererModule.dll_A86D21C418B26D8C.mvfrm
Library\Bee\artifacts\mvdfrm\UnityEngine.ContentLoadModule.dll_24EF2B75B264A98E.mvfrm
Library\Bee\artifacts\mvdfrm\UnityEngine.CoreModule.dll_E0CFB73F2F892634.mvfrm
Library\Bee\artifacts\mvdfrm\UnityEngine.CrashReportingModule.dll_9B531F8A8E37A24C.mvfrm
Library\Bee\artifacts\mvdfrm\UnityEngine.DirectorModule.dll_E94314967CF16151.mvfrm
Library\Bee\artifacts\mvdfrm\UnityEngine.dll_A675A1ABC61B2D21.mvfrm
Library\Bee\artifacts\mvdfrm\UnityEngine.DSPGraphModule.dll_EE9475FFEF523272.mvfrm
Library\Bee\artifacts\mvdfrm\UnityEngine.GameCenterModule.dll_A507DCF1A57CD76C.mvfrm
Library\Bee\artifacts\mvdfrm\UnityEngine.GIModule.dll_433823B9247FEA57.mvfrm
Library\Bee\artifacts\mvdfrm\UnityEngine.GridModule.dll_BE40D32D47DDBC2B.mvfrm
Library\Bee\artifacts\mvdfrm\UnityEngine.HotReloadModule.dll_6D82319A344BB595.mvfrm
Library\Bee\artifacts\mvdfrm\UnityEngine.ImageConversionModule.dll_145F1F749AD72580.mvfrm
Library\Bee\artifacts\mvdfrm\UnityEngine.IMGUIModule.dll_97E54810F2BE5226.mvfrm
Library\Bee\artifacts\mvdfrm\UnityEngine.InputLegacyModule.dll_1D1DED537BD3B792.mvfrm
Library\Bee\artifacts\mvdfrm\UnityEngine.InputModule.dll_C5FB705AA2C4E2E9.mvfrm
Library\Bee\artifacts\mvdfrm\UnityEngine.JSONSerializeModule.dll_D69F6623558A0F37.mvfrm
Library\Bee\artifacts\mvdfrm\UnityEngine.LocalizationModule.dll_80A27A2174C8B3FE.mvfrm
Library\Bee\artifacts\mvdfrm\UnityEngine.NVIDIAModule.dll_3F2B846BE785E920.mvfrm
Library\Bee\artifacts\mvdfrm\UnityEngine.ParticleSystemModule.dll_EE6568D6FC492DDA.mvfrm
Library\Bee\artifacts\mvdfrm\UnityEngine.PerformanceReportingModule.dll_015E0F0989EBEEF3.mvfrm
Library\Bee\artifacts\mvdfrm\UnityEngine.Physics2DModule.dll_38DF6384FA1591A8.mvfrm
Library\Bee\artifacts\mvdfrm\UnityEngine.PhysicsModule.dll_E80E01D03FB613B6.mvfrm
Library\Bee\artifacts\mvdfrm\UnityEngine.ProfilerModule.dll_1B894DCD164AE85E.mvfrm
Library\Bee\artifacts\mvdfrm\UnityEngine.PropertiesModule.dll_D2431C3018683BA8.mvfrm
Library\Bee\artifacts\mvdfrm\UnityEngine.RuntimeInitializeOnLoadManagerInitializerModule.dll_8730AFB7F56A5271.mvfrm
Library\Bee\artifacts\mvdfrm\UnityEngine.ScreenCaptureModule.dll_F08713A869F63B99.mvfrm
Library\Bee\artifacts\mvdfrm\UnityEngine.SharedInternalsModule.dll_98705E4A120520D0.mvfrm
Library\Bee\artifacts\mvdfrm\UnityEngine.SpriteMaskModule.dll_8E344F81C6EC6CE6.mvfrm
Library\Bee\artifacts\mvdfrm\UnityEngine.SpriteShapeModule.dll_A539FF8F998439AB.mvfrm
Library\Bee\artifacts\mvdfrm\UnityEngine.StreamingModule.dll_A0CE60E4A8A05151.mvfrm
Library\Bee\artifacts\mvdfrm\UnityEngine.SubstanceModule.dll_7D79752DF3F34F5F.mvfrm
Library\Bee\artifacts\mvdfrm\UnityEngine.SubsystemsModule.dll_F8E1B5E3953454F9.mvfrm
Library\Bee\artifacts\mvdfrm\UnityEngine.TerrainModule.dll_02547D3F15745CA4.mvfrm
Library\Bee\artifacts\mvdfrm\UnityEngine.TerrainPhysicsModule.dll_EEE011AA158C2867.mvfrm
Library\Bee\artifacts\mvdfrm\UnityEngine.TextCoreFontEngineModule.dll_EE9859AF3A7B6D32.mvfrm
Library\Bee\artifacts\mvdfrm\UnityEngine.TextCoreTextEngineModule.dll_36809020C9FF2650.mvfrm
Library\Bee\artifacts\mvdfrm\UnityEngine.TextRenderingModule.dll_19C685B3212DBB8E.mvfrm
Library\Bee\artifacts\mvdfrm\UnityEngine.TilemapModule.dll_A150E4C02D313DAD.mvfrm
Library\Bee\artifacts\mvdfrm\UnityEngine.TLSModule.dll_0387BCE1B54B870A.mvfrm
Library\Bee\artifacts\mvdfrm\UnityEngine.UIElementsModule.dll_FD20174B986090F0.mvfrm
Library\Bee\artifacts\mvdfrm\UnityEngine.UIModule.dll_A66F78D8E51807E9.mvfrm
Library\Bee\artifacts\mvdfrm\UnityEngine.UmbraModule.dll_DA5A54C2B9B369B8.mvfrm
Library\Bee\artifacts\mvdfrm\UnityEngine.UnityAnalyticsCommonModule.dll_9C9CCC4DA3D48D51.mvfrm
Library\Bee\artifacts\mvdfrm\UnityEngine.UnityAnalyticsModule.dll_0E04D9A0A8707FD6.mvfrm
Library\Bee\artifacts\mvdfrm\UnityEngine.UnityConnectModule.dll_B018BEC8264CEEEA.mvfrm
Library\Bee\artifacts\mvdfrm\UnityEngine.UnityCurlModule.dll_1F5614C5C92C8C00.mvfrm
Library\Bee\artifacts\mvdfrm\UnityEngine.UnityTestProtocolModule.dll_1C691247C796A06E.mvfrm
Library\Bee\artifacts\mvdfrm\UnityEngine.UnityWebRequestAssetBundleModule.dll_48B246F220B19327.mvfrm
Library\Bee\artifacts\mvdfrm\UnityEngine.UnityWebRequestAudioModule.dll_795A62E81056B98B.mvfrm
Library\Bee\artifacts\mvdfrm\UnityEngine.UnityWebRequestModule.dll_25FE271EA5CBBFFF.mvfrm
Library\Bee\artifacts\mvdfrm\UnityEngine.UnityWebRequestTextureModule.dll_9E3565D5332FBEC0.mvfrm
Library\Bee\artifacts\mvdfrm\UnityEngine.UnityWebRequestWWWModule.dll_0142D57CB9BEE2BC.mvfrm
Library\Bee\artifacts\mvdfrm\UnityEngine.VehiclesModule.dll_61060E15F71B30EC.mvfrm
Library\Bee\artifacts\mvdfrm\UnityEngine.VFXModule.dll_846655508BB8F077.mvfrm
Library\Bee\artifacts\mvdfrm\UnityEngine.VideoModule.dll_848F2D14EF1ED9EA.mvfrm
Library\Bee\artifacts\mvdfrm\UnityEngine.VirtualTexturingModule.dll_F061E7894F0177D2.mvfrm
Library\Bee\artifacts\mvdfrm\UnityEngine.VRModule.dll_F9419F5E86D28D61.mvfrm
Library\Bee\artifacts\mvdfrm\UnityEngine.WindModule.dll_571E9267C0BFA49D.mvfrm
Library\Bee\artifacts\mvdfrm\UnityEngine.XRModule.dll_2C006263100CDABF.mvfrm
Library\Bee\artifacts\mvdfrm\UnityEditor.WebGL.Extensions.dll_484A4D0779C82AB7.mvfrm
Library\Bee\artifacts\mvdfrm\UnityEditor.WindowsStandalone.Extensions.dll_A4B329348B2CA827.mvfrm
Library\Bee\artifacts\mvdfrm\Unity.Plastic.Antlr3.Runtime.dll_E340043392540AF9.mvfrm
Library\Bee\artifacts\mvdfrm\Unity.Plastic.Newtonsoft.Json.dll_41CE71F42A4FD22C.mvfrm
Library\Bee\artifacts\mvdfrm\Unity.VisualScripting.IonicZip.dll_840FAE5C8A141D5B.mvfrm
Library\Bee\artifacts\mvdfrm\Unity.VisualScripting.YamlDotNet.dll_4A5905A13DE9A491.mvfrm
Library\Bee\artifacts\mvdfrm\Unity.VisualScripting.TextureAssets.dll_E1772EF4FEB70289.mvfrm
Library\Bee\artifacts\mvdfrm\Unity.VisualScripting.Antlr3.Runtime.dll_FBC62C826EB2B4B0.mvfrm